Approximate_IUCN_Red_List_assessments_with_IUCNN • IUCNN
…
Model training

Based on the training features and labels, IUCNN trains a neural network, using the tensorflow module. The training is done vie the train_iucnn function. There are multiple options to change the design of the network, including among others the number of layers, and the fraction of records used for testing and validation. The train_iucnn function will write a folder to the working directory containing the model and print summary statistics to the screen.

train_iucnn(x = features_train,
            labels = labels_train,
            model_name = "iuc_nn_model")

Predict IUCN Global Red List status

The trained model can then predict the conservation status of Not Evaluated and Data Deficient species with the predict_iucnn function. The output is a a data.frame with species names and numeric labels (as generated with prepare_labels).

predict_iucnn(x = features_predict,
              model_dir = "iuc_nn_model")
#> # A tibble: 100 x 2
#>    species                  ...2
#>    <chr>                   <dbl>
#>  1 Aa trilobulata              3
#>  2 Aeranthes peyrotii          3
#>  3 Angraecum erectum           3
#>  4 Angraecum lisowskianum      3
#>  5 Appendicula celebica        1
#>  6 Barkeria whartoniana        0
#>  7 Batemannia leferenzii       3
#>  8 Bonatea rabaiensis          3
#>  9 Brassia thyrsodes           3
#> 10 Bulbophyllum bulliferum     3
#> # ... with 90 more rows
…
