Format IUCN Red List categories for IUCNN — prepare_labels • IUCNN
…
    Value

    a data.frame with species names and numeric labels

    Note

    See vignette("Approximate_IUCN_Red_List_assessments_with_IUCNN") for a
tutorial on how to run IUCNN.

    Examples

data("training_labels")
prepare_labels(training_labels)
#> # A tibble: 889 x 2
#>    species                 labels
#>    <chr>                    <int>
#>  1 Liparis ambohimangana        1
#>  2 Liparis bautingensis         1
#>  3 Liparis bulbophylloides      2
#>  4 Liparis glaucescens          2
#>  5 Liparis goodyeroides         0
#>  6 Liparis henrici              2
#>  7 Liparis longicaulis          2
#>  8 Liparis longipetala          4
#>  9 Liparis petelotii            4
#> 10 Liparis philippinensis       4
#> # ... with 879 more rows
…
